36-315 Lecture 23
…
- `beta`: Word probabilities for each topic

---

## Working with `\(\beta\)`s

For any topic `\(t\)`, we'll have probabilities `\(\beta_1^{(t)},\dots,\beta_J^{(t)}\)`

```r
st_topics <- tidy(st_lda, matrix = "beta")
st_topics
```

```
## # A tibble: 11,204 × 3
##    topic term       beta
##    <int> <chr>     <dbl>
##  1     1 00    1.19e-  3
##  2     2 00    2.36e-  4
##  3     1 10    2.07e-  4
##  4     2 10    5.47e-  5
##  5     1 100   2.15e-  4
##  6     2 100   2.07e-  4
##  7     1 12    1.66e-  4
##  8     2 12    1.09e-  4
##  9     1 12.3  4.14e-  5
## 10     2 12.3  6.95e-101
## # … with 11,194 more rows
```
…
